Social Media Analytics, 3rd lecture
…
Now, well need to do some cleaning. As explained in the lecture, OBI4wan gives the data using a very weird data format, in which the years are missing. There is no standard solution for this, because really, this date format is plain wrong. This means we need to get a bit creative.

In the following code we add the years by saying every date BEFORE 01/01 (1st of January) has year 2020, and every date after 2021. We do this by looking which row has this value, and then looking at the row numbers (1:nrow(d)). The ifelse() function states: if the row number is higher than the row, the value is 2021, else its 2020.

start_2021 = which(d$Name == '01/01')
d$year = ifelse(1:nrow(d) >= start_2021, 2021, 2020)

Now we can paste the year to the date, and create a proper date column

d$date = paste(d$Name, d$year, sep='/')        ## create date in format day/month/year
d$date = as.Date(d$date, format = '%d/%m/%Y')  ## read the date from this new format
d

## # A tibble: 365 x 6
##    Name  Neutral Negative Positive  year date      
##    <chr>   <dbl>    <dbl>    <dbl> <dbl> <date>    
##  1 15/05    5561      375      117  2020 2020-05-15
##  2 16/05    6300      499      142  2020 2020-05-16
##  3 17/05    4173      389      126  2020 2020-05-17
##  4 18/05    4238      394       49  2020 2020-05-18
##  5 19/05    8900      942      273  2020 2020-05-19
##  6 20/05    7532      655      150  2020 2020-05-20
##  7 21/05    5717      376      370  2020 2020-05-21
##  8 22/05    4981      382      145  2020 2020-05-22
##  9 23/05    3046      229       64  2020 2020-05-23
## 10 24/05    2713      194       67  2020 2020-05-24
## #  with 355 more rows
…
library(tidyverse)
library(lubridate)

## load data (as exported from OBI4wan sentiment line graph)
d = read_csv2('~/Downloads/obi4wan_export_20211705_174102.csv')

## fix date
start_2021 = which(d$Name == '01/01')
d$year = ifelse(1:nrow(d) >= start_2021, 2021, 2020)
d$date = paste(d$Name, d$year, sep='/')        ## create date in format day/month/year
d$date = as.Date(d$date, format = '%d/%m/%Y')  ## read the date from this new format
d

## # A tibble: 365 x 6
##    Name  Neutral Negative Positive  year date      
##    <chr>   <dbl>    <dbl>    <dbl> <dbl> <date>    
##  1 15/05    5561      375      117  2020 2020-05-15
##  2 16/05    6300      499      142  2020 2020-05-16
##  3 17/05    4173      389      126  2020 2020-05-17
##  4 18/05    4238      394       49  2020 2020-05-18
##  5 19/05    8900      942      273  2020 2020-05-19
##  6 20/05    7532      655      150  2020 2020-05-20
##  7 21/05    5717      376      370  2020 2020-05-21
##  8 22/05    4981      382      145  2020 2020-05-22
##  9 23/05    3046      229       64  2020 2020-05-23
## 10 24/05    2713      194       67  2020 2020-05-24
## #  with 355 more rows
You can roughly think of descriptive statistics as summarizing. The idea is that we can say something about a whole lot of numbers, based on fewer numbers. Most trivially, we can just sum up numbers. The following code uses the summarize function to summarize our data. Within this function we can use any function that creates a summarizing statistic, such as sum, mean and sd (standard deviation). Here we first use sum, to sum up the values in the columns

d %>% summarize(Positive_sum = sum(Positive), Negative_sum = sum(Negative))

## # A tibble: 1 x 2
##   Positive_sum Negative_sum
##          <dbl>        <dbl>
## 1        67435       266948

We can also get the mean and standard deviation. For this, lets first calculate a sentiment score.

d = d %>% mutate(sentiment = (Positive - Negative) / (Positive + Negative))
d

## # A tibble: 365 x 7
##    Name  Neutral Negative Positive  year date       sentiment
##    <chr>   <dbl>    <dbl>    <dbl> <dbl> <date>         <dbl>
##  1 15/05    5561      375      117  2020 2020-05-15  -0.524  
##  2 16/05    6300      499      142  2020 2020-05-16  -0.557  
##  3 17/05    4173      389      126  2020 2020-05-17  -0.511  
##  4 18/05    4238      394       49  2020 2020-05-18  -0.779  
##  5 19/05    8900      942      273  2020 2020-05-19  -0.551  
##  6 20/05    7532      655      150  2020 2020-05-20  -0.627  
##  7 21/05    5717      376      370  2020 2020-05-21  -0.00804
##  8 22/05    4981      382      145  2020 2020-05-22  -0.450  
##  9 23/05    3046      229       64  2020 2020-05-23  -0.563  
## 10 24/05    2713      194       67  2020 2020-05-24  -0.487  
## #  with 355 more rows
…
For your assignment, you might specifically want to compare all tweets before and after a certain date. In this case, we can just create a group based on a date is greater than condition.

d = d %>% mutate(after_christmas = date >= '2020-12-26')
d

## # A tibble: 365 x 8
##    Name  Neutral Negative Positive  year date       sentiment after_christmas
##    <chr>   <dbl>    <dbl>    <dbl> <dbl> <date>         <dbl> <lgl>          
##  1 15/05    5561      375      117  2020 2020-05-15  -0.524   FALSE          
##  2 16/05    6300      499      142  2020 2020-05-16  -0.557   FALSE          
##  3 17/05    4173      389      126  2020 2020-05-17  -0.511   FALSE          
##  4 18/05    4238      394       49  2020 2020-05-18  -0.779   FALSE          
##  5 19/05    8900      942      273  2020 2020-05-19  -0.551   FALSE          
##  6 20/05    7532      655      150  2020 2020-05-20  -0.627   FALSE          
##  7 21/05    5717      376      370  2020 2020-05-21  -0.00804 FALSE          
##  8 22/05    4981      382      145  2020 2020-05-22  -0.450   FALSE          
##  9 23/05    3046      229       64  2020 2020-05-23  -0.563   FALSE          
## 10 24/05    2713      194       67  2020 2020-05-24  -0.487   FALSE          
## #  with 355 more rows
…
